…
library(dplyr)
library(ggplot2)

comb_stats <- stats %>% 
  group_by(Data,Sample) %>% 
  summarise(TotalReadCount = sum(ReadCount), TotalBaseCount = sum(BaseCount), 
            TotalQ20_BaseCount = sum(Q20_BaseCount), TotalQ30_BaseCount = sum(Q20_BaseCount),
            Mean_ReadLength=mean(Mean_ReadLength)) #%>% tail()

comb_stats
```

```
## # A tibble: 3,662 x 7
## # Groups:   Data [2]
##    Data  Sample TotalReadCount TotalBaseCount TotalQ20_BaseCo… TotalQ30_BaseCo…
##    <chr> <chr>           <int>          <dbl>            <dbl>            <dbl>
##  1 1_Ra… C00003        8832324     1324848600       1277318868       1277318868
##  2 1_Ra… C00006       10613266     1591989900       1541645869       1541645869
##  3 1_Ra… C00007        8949378     1342406700       1297233990       1297233990
##  4 1_Ra… C00008       13292378     1993856700       1947419081       1947419081
##  5 1_Ra… C00016       10019890     1502983500       1465813355       1465813355
##  6 1_Ra… C00020       11317214     1697582100       1655088630       1655088630
##  7 1_Ra… C00021       13909670     2086450500       2042322658       2042322658
##  8 1_Ra… C00023       11107862     1666179300       1622644593       1622644593
##  9 1_Ra… C00024        8335964     1250394600       1222138157       1222138157
## 10 1_Ra… C00027        9255552     1388332800       1355650386       1355650386
## # … with 3,652 more rows, and 1 more variable: Mean_ReadLength <dbl>
```
…
```r
library(dplyr)
library(ggplot2)
library(stringr)

# Genome assemblies and CPgenes
blast.filt %>%
  group_by(assemblyName) %>%
  summarise(CPgenes=paste(sseqid,collapse=', '))
```

```
## # A tibble: 1,654 x 2
##    assemblyName                       CPgenes                            
##    <chr>                              <chr>                              
##  1 C00003_spades.gte1kb.contigs.fasta NDM-1_1_FN396876, OXA-23_1_AY795964
##  2 C00006_spades.gte1kb.contigs.fasta OXA-48_1_AY236073                  
##  3 C00007_spades.gte1kb.contigs.fasta NDM-5_1_JN104597                   
##  4 C00008_spades.gte1kb.contigs.fasta IMP-1_1_EF027105                   
##  5 C00023_spades.gte1kb.contigs.fasta VIM-2_1_AF302086                   
##  6 C00024_spades.gte1kb.contigs.fasta NDM-1_1_FN396876                   
##  7 C00027_spades.gte1kb.contigs.fasta NDM-1_1_FN396876                   
##  8 C00032_spades.gte1kb.contigs.fasta IMI-1_1_U50278                     
##  9 C00034_spades.gte1kb.contigs.fasta KPC-2_1_AY034847                   
## 10 C00035_spades.gte1kb.contigs.fasta OXA-48_1_AY236073                  
## # … with 1,644 more rows
```
…
